{
  "project_info": {
    "project_number": "820989964357",
    "firebase_url": "https://camera-130d3.firebaseio.com",
    "project_id": "camera-130d3",
    "storage_bucket": "camera-130d3.appspot.com"
  },
  "client": [
    {
      "client_info": {
        "mobilesdk_app_id": "1:820989964357:android:0473dfda9ab0372eeef32c",
        "android_client_info": {
          "package_name": "com.mountblue.cameraapp"
        }
      },
      "oauth_client": [
        {
          "client_id": "820989964357-guf4ij1962760ci08gl86s8crlu81ort.apps.googleusercontent.com",
          "client_type": 1,
          "android_info": {
            "package_name": "com.mountblue.cameraapp",
            "certificate_hash": "5e8f16062ea3cd2c4a0d547876baa6f38cabf625"
          }
        },
        {
          "client_id": "820989964357-o241t5d0u8rg8qgalgqhk82hqq3mv6o5.apps.googleusercontent.com",
          "client_type": 3
        }
      ],
      "api_key": [
        {
          "current_key": "AIzaSyADmEV0aaz7qgEUCf_2XE3hfm5LYF9ILXY"
        }
      ],
      "services": {
        "appinvite_service": {
          "other_platform_oauth_client": [
            {
              "client_id": "820989964357-o241t5d0u8rg8qgalgqhk82hqq3mv6o5.apps.googleusercontent.com",
              "client_type": 3
            }
          ]
        }
      }
    }
  ],
  "configuration_version": "1"
}